module AuthService

go 1.22.0

require (
	github.com/gorilla/mux v1.8.1
	github.com/joho/godotenv v1.5.1
	github.com/spf13/viper v1.18.2
	golang.org/x/crypto v0.21.0
	golang.org/x/oauth2 v0.16.0
	google.golang.org/grpc v1.62.0
	google.golang.org/protobuf v1.32.0
	gorm.io/driver/mysql v1.5.4
	gorm.io/gorm v1.25.7
)

require (
	github.com/fsnotify/fsnotify v1.7.0 // indirect
	github.com/go-sql-driver/mysql v1.7.0 // indirect
	github.com/golang/protobuf v1.5.3 // indirect
	github.com/hashicorp/hcl v1.0.0 // indirect
	github.com/jinzhu/inflection v1.0.0 // indirect
	github.com/jinzhu/now v1.1.5 // indirect
	github.com/magiconair/properties v1.8.7 // indirect
	github.com/mitchellh/mapstructure v1.5.0 // indirect
	github.com/pelletier/go-toml/v2 v2.1.0 // indirect
	github.com/sagikazarmark/locafero v0.4.0 // indirect
	github.com/sagikazarmark/slog-shim v0.1.0 // indirect
	github.com/sourcegraph/conc v0.3.0 // indirect
	github.com/spf13/afero v1.11.0 // indirect
	github.com/spf13/cast v1.6.0 // indirect
	github.com/spf13/pflag v1.0.5 // indirect
	github.com/subosito/gotenv v1.6.0 // indirect
	go.uber.org/atomic v1.9.0 // indirect
	go.uber.org/multierr v1.9.0 // indirect
	golang.org/x/exp v0.0.0-20230905200255-921286631fa9 // indirect
	golang.org/x/net v0.21.0 // indirect
	golang.org/x/sys v0.18.0 // indirect
	golang.org/x/text v0.14.0 // indirect
	google.golang.org/appengine v1.6.8 // indirect
	google.golang.org/genproto/googleapis/rpc v0.0.0-20240123012728-ef4313101c80 // indirect
	gopkg.in/ini.v1 v1.67.0 // indirect
	gopkg.in/yaml.v3 v3.0.1 // indirect
)
